{
  "app-id": "com.mojang.MinecraftLauncher",
  "runtime": "org.freedesktop.Platform",
  "runtime-version": "19.08",
  "sdk": "org.freedesktop.Sdk",
  "command": "minecraft",
  "separate-locales": false,
  "tags": ["proprietary"],
  "sdk-extensions": [
    "org.freedesktop.Sdk.Extension.openjdk8"
  ],
  "finish-args": [
    "--filesystem=home",
    "--socket=x11",
    "--share=ipc",
    "--device=dri",
    "--socket=pulseaudio",
    "--share=network",
    "--env=JAVA_HOME=/app/jre",
    "--env=PATH=/app/bin:/usr/bin:/app/jre/bin"
  ],
  "build-options" : {
    "append-path": "/usr/lib/sdk/openjdk8/bin"
  },
  "modules": [
    {
      "name": "xrandr",
      "sources": [
        {
          "type": "archive",
          "url": "https://www.x.org/archive/individual/app/xrandr-1.5.1.tar.gz",
          "sha256": "7b99edb7970a1365eaf5bcaf552144e4dfc3ccf510c4abc08569849929fb366e"
        }
      ]
    },
    {
      "name": "openjdk",
        "buildsystem": "simple",
        "build-commands": [
          "/usr/lib/sdk/openjdk8/install.sh"
        ]
    },
    {
      "name": "minecraft",
      "buildsystem": "simple",
      "build-commands": [
        "install -Dm644 MinecraftLauncher.jar /app/share/MinecraftLauncher/MinecraftLauncher.jar",
        "install -Dm 755 minecraft /app/bin/minecraft",
        "install -Dp -m 644 com.mojang.MinecraftLauncher.desktop /app/share/applications/com.mojang.MinecraftLauncher.desktop",
        "install -Dp -m 644 com.mojang.MinecraftLauncher-64.png /app/share/icons/hicolor/64x64/apps/com.mojang.MinecraftLauncher.png",
        "install -Dp -m 644 com.mojang.MinecraftLauncher-128.png /app/share/icons/hicolor/128x128/apps/com.mojang.MinecraftLauncher.png",
        "install -Dp -m 644 com.mojang.MinecraftLauncher.png /app/share/icons/hicolor/256x256/apps/com.mojang.MinecraftLauncher.png",
        "install -Dp -m 644 com.mojang.MinecraftLauncher.appdata.xml /app/share/appdata/com.mojang.MinecraftLauncher.appdata.xml"
      ],
      "sources" : [
        {
          "type": "file",
          "path": "MinecraftLauncher.jar"
        },
        {
          "type": "file",
          "path": "minecraft"
        },
        {
          "type": "file",
          "path": "com.mojang.MinecraftLauncher.desktop"
        },
        {
          "type": "file",
          "path": "com.mojang.MinecraftLauncher-64.png"
        },
        {
          "type": "file",
          "path": "com.mojang.MinecraftLauncher-128.png"
        },
        {
          "type": "file",
          "path": "com.mojang.MinecraftLauncher.png"
        },
        {
          "type": "file",
          "path": "com.mojang.MinecraftLauncher.appdata.xml"
        }
      ]
    }
  ]
}
